<?xml version="1.0" encoding="utf-8"?>
<!-- Generator: Adobe Illustrator 24.0.1, SVG Export Plug-In . SVG Version: 6.00 Build 0)  -->
<svg version="1.1" id="Layer_1" xmlns="http://www.w3.org/2000/svg" xmlns:xlink="http://www.w3.org/1999/xlink" x="0px" y="0px"
	 viewBox="0 0 300 300" style="enable-background:new 0 0 300 300;" xml:space="preserve">
<style type="text/css">
	.st0{display:none;}
	.st1{display:inline;}
</style>
<path d="M181.4,264.5c-20.8-5-30.9,41.1-42.5,18.9c-1.7-13.3,16-15.1,19.9-28.2c-15.5-3.1-30.5,11-47.7,15
	c-38.8,9.4-52.9-56.1-18.1-68.7c-25,90.5,33.6,38.4,81.7,35.6c21.2-0.9,13.1,34.7,47.1-2.8c22.9-25.6-28.1-51.2-41.9-71.4
	C97.4,64.4,81.6,54,88.6,13.9c11.6-14.5,12.8,9.8,11.5,20.3c13.3,38.3,46.3,67.4,72,99.2c25.7,33.2,69.4,64.5,69.7,81.5
	C244.9,245.5,211.9,269,181.4,264.5z"/>
<path class="st0" d="M259.5,250.3c-0.5-13.3,5.2-32.7-0.2-42.1c-11.2-0.1-17.7,4-21.2-9.8c-7.2-20-9.7-41.1-17.3-60.6
	c-40.8-2.4-83.5,12.3-123.1-7.6c-30.4-4.1-14.1,95.1-51.1,77.8c-10.1,5.6,2.1,29.5-1.2,40.1c-10,18.2-10.2-32-10.8-36.6
	c2.8-6.9,8.1-13.3,6.6-21.8c-4.8-71.8-5.1-79.8,31.2-114.1c92.1-62.8,221.5-7.7,190.7,111.9c-3,10.1,7,15.1,9.2,24.5
	C273.7,224.1,273.3,257.7,259.5,250.3z M255.9,151C258.7,8.5-5.3,37,55.6,197.2c38-79.8-6-89,84.7-67.2
	c118.5-1.8,72.4-29.5,109.4,67.3C256.5,184.9,253.8,166,255.9,151z"/>
<g class="st0">
	<path class="st1" d="M149.8,88.1c45.5,2,81.7,12.5,113.2,36.4c61,37.2-41.8,101.1-77.4,103.3c-62,14.3-132.3-26.3-164.9-58.2
		C-3.1,133.8,97.3,88,149.8,88.1z M100.3,109.5c-0.9-0.5-1.8-0.9-2.6-1.4c-35.2,12-81.9,42.4-71.9,53.2
		c36.5,39.7,104.8,64.8,148,59.4c74.1-7.3,150.7-78,46.7-110.1C253.1,245.3,55.5,230.3,100.3,109.5z M153.3,95
		C153.2,95.7,153.4,94.3,153.3,95c-75.4-3.5-54.9,83.5-21.3,96C210.8,229.8,267.1,95.3,153.3,95z"/>
	<path class="st1" d="M157,173.9c-41.9-3.5-39-67.1,1.8-67.2c2.7,1.3,3.3,4,0.7,9c-4.3,20.1,15,28,31.2,22.9
		C199.6,154.2,171.7,175.4,157,173.9z"/>
</g>
</svg>
